B2_TrafficLight/wave.vcd
$date
	Sat Apr 11 10:39:37 2026
$end
$version
	ModelSim Version 10.5b
$end
$timescale
	1ms
$end

$scope module tb_TrafficLight $end
$var wire 1 ! Q [5] $end
$var wire 1 " Q [4] $end
$var wire 1 # Q [3] $end
$var wire 1 $ Q [2] $end
$var wire 1 % Q [1] $end
$var wire 1 & Q [0] $end
$var wire 1 ' led7seg_DonVi1 [6] $end
$var wire 1 ( led7seg_DonVi1 [5] $end
$var wire 1 ) led7seg_DonVi1 [4] $end
$var wire 1 * led7seg_DonVi1 [3] $end
$var wire 1 + led7seg_DonVi1 [2] $end
$var wire 1 , led7seg_DonVi1 [1] $end
$var wire 1 - led7seg_DonVi1 [0] $end
$var wire 1 . led7seg_Chuc1 [6] $end
$var wire 1 / led7seg_Chuc1 [5] $end
$var wire 1 0 led7seg_Chuc1 [4] $end
$var wire 1 1 led7seg_Chuc1 [3] $end
$var wire 1 2 led7seg_Chuc1 [2] $end
$var wire 1 3 led7seg_Chuc1 [1] $end
$var wire 1 4 led7seg_Chuc1 [0] $end
$var wire 1 5 led7seg_DonVi2 [6] $end
$var wire 1 6 led7seg_DonVi2 [5] $end
$var wire 1 7 led7seg_DonVi2 [4] $end
$var wire 1 8 led7seg_DonVi2 [3] $end
$var wire 1 9 led7seg_DonVi2 [2] $end
$var wire 1 : led7seg_DonVi2 [1] $end
$var wire 1 ; led7seg_DonVi2 [0] $end
$var wire 1 < led7seg_Chuc2 [6] $end
$var wire 1 = led7seg_Chuc2 [5] $end
$var wire 1 > led7seg_Chuc2 [4] $end
$var wire 1 ? led7seg_Chuc2 [3] $end
$var wire 1 @ led7seg_Chuc2 [2] $end
$var wire 1 A led7seg_Chuc2 [1] $end
$var wire 1 B led7seg_Chuc2 [0] $end
$var reg 1 C clk $end
$var reg 1 D sw $end

$scope module uut $end
$var parameter 5 E Time_R $end
$var parameter 5 F Time_G $end
$var parameter 5 G Time_Y $end
$var parameter 5 H Time_YR $end
$var parameter 5 I Time_Blink $end
$var parameter 5 J TR $end
$var parameter 5 K TG $end
$var parameter 5 L TY $end
$var parameter 3 M S1 $end
$var parameter 3 N S2 $end
$var parameter 3 O S3 $end
$var parameter 3 P S4 $end
$var parameter 3 Q S5 $end
$var parameter 3 R S6 $end
$var parameter 6 S l1 $end
$var parameter 6 T l2 $end
$var parameter 6 U l3 $end
$var parameter 6 V l4 $end
$var parameter 6 W BlinkLight $end
$var parameter 6 X NoBlinkLight $end
$var wire 1 Y clk $end
$var wire 1 Z sw $end
$var reg 6 [ Q [5:0] $end
$var wire 1 . led7seg_Chuc1 [6] $end
$var wire 1 / led7seg_Chuc1 [5] $end
$var wire 1 0 led7seg_Chuc1 [4] $end
$var wire 1 1 led7seg_Chuc1 [3] $end
$var wire 1 2 led7seg_Chuc1 [2] $end
$var wire 1 3 led7seg_Chuc1 [1] $end
$var wire 1 4 led7seg_Chuc1 [0] $end
$var wire 1 ' led7seg_DonVi1 [6] $end
$var wire 1 ( led7seg_DonVi1 [5] $end
$var wire 1 ) led7seg_DonVi1 [4] $end
$var wire 1 * led7seg_DonVi1 [3] $end
$var wire 1 + led7seg_DonVi1 [2] $end
$var wire 1 , led7seg_DonVi1 [1] $end
$var wire 1 - led7seg_DonVi1 [0] $end
$var wire 1 < led7seg_Chuc2 [6] $end
$var wire 1 = led7seg_Chuc2 [5] $end
$var wire 1 > led7seg_Chuc2 [4] $end
$var wire 1 ? led7seg_Chuc2 [3] $end
$var wire 1 @ led7seg_Chuc2 [2] $end
$var wire 1 A led7seg_Chuc2 [1] $end
$var wire 1 B led7seg_Chuc2 [0] $end
$var wire 1 5 led7seg_DonVi2 [6] $end
$var wire 1 6 led7seg_DonVi2 [5] $end
$var wire 1 7 led7seg_DonVi2 [4] $end
$var wire 1 8 led7seg_DonVi2 [3] $end
$var wire 1 9 led7seg_DonVi2 [2] $end
$var wire 1 : led7seg_DonVi2 [1] $end
$var wire 1 ; led7seg_DonVi2 [0] $end
$var reg 5 \ timer [4:0] $end
$var reg 5 ] TRL1 [4:0] $end
$var reg 5 ^ TRL2 [4:0] $end
$var reg 5 _ DonVi1 [4:0] $end
$var reg 5 ` Chuc1 [4:0] $end
$var reg 5 a Chuc2 [4:0] $end
$var reg 5 b DonVi2 [4:0] $end
$var reg 3 c CurrentTime [2:0] $end
$var reg 3 d NextTime [2:0] $end

$scope module DV1 $end
$var wire 1 e timer [4] $end
$var wire 1 f timer [3] $end
$var wire 1 g timer [2] $end
$var wire 1 h timer [1] $end
$var wire 1 i timer [0] $end
$var wire 1 Z sw $end
$var reg 7 j Q [6:0] $end
$upscope $end

$scope module C1 $end
$var wire 1 k timer [4] $end
$var wire 1 l timer [3] $end
$var wire 1 m timer [2] $end
$var wire 1 n timer [1] $end
$var wire 1 o timer [0] $end
$var wire 1 Z sw $end
$var reg 7 p Q [6:0] $end
$upscope $end

$scope module DV2 $end
$var wire 1 q timer [4] $end
$var wire 1 r timer [3] $end
$var wire 1 s timer [2] $end
$var wire 1 t timer [1] $end
$var wire 1 u timer [0] $end
$var wire 1 Z sw $end
$var reg 7 v Q [6:0] $end
$upscope $end

$scope module C2 $end
$var wire 1 w timer [4] $end
$var wire 1 x timer [3] $end
$var wire 1 y timer [2] $end
$var wire 1 z timer [1] $end
$var wire 1 { timer [0] $end
$var wire 1 Z sw $end
$var reg 7 | Q [6:0] $end
$upscope $end
$upscope $end
$upscope $end
$enddefinitions $end
#0
$dumpvars
0C
0D
b100001 [
b1111 \
b10000 ]
b10101 ^
b110 _
b1 `
b10 a
b1 b
bx00 c
bx d
b100000 j
b1001111 p
b1001111 v
b10010 |
b1111 E
b1111 F
b101 G
b101 H
b1 I
b10100 J
b1111 K
b101 L
b0 M
b1 N
b10 O
b11 P
b100 Q
b101 R
b100001 S
b10001 T
b1010 U
b1100 V
b10010 W
b0 X
1&
0%
0$
0#
0"
1!
0-
0,
0+
0*
0)
1(
0'
14
13
12
11
00
0/
1.
1;
1:
19
18
07
06
15
0B
1A
0@
0?
1>
0=
0<
0Z
0Y
0{
1z
0y
0x
0w
1u
0t
0s
0r
0q
1o
0n
0m
0l
0k
0i
1h
1g
0f
0e
$end
#500
1C
1Y
b1111 ]
b10100 ^
b0 d
b0 c
b101 _
b0 b
0u
1i
0h
b100100 j
b1 v
0:
09
08
05
1+
#1000
0C
0Y
#1500
1C
1Y
b1110 ]
b10011 ^
b1110 \
b100 _
b1001 b
b1 a
1{
0z
1u
1r
0i
b1001000 j
b100 v
b1001111 |
1B
1@
1?
0>
1<
0;
19
0+
1*
0(
1'
#2000
0C
0Y
#2500
1C
1Y
b1101 ]
b10010 ^
b1101 \
b11 _
b1000 b
0u
1i
1h
0g
b110 j
b0 v
09
1,
1+
0*
0'
#3000
0C
0Y
#3500
1C
1Y
b1100 ]
b10001 ^
b1100 \
b10 _
b111 b
1u
1t
1s
0r
0i
b10010 j
b1111 v
1;
1:
19
18
0+
1)
#4000
0C
0Y
#4500
1C
1Y
b1011 ]
b10000 ^
b1011 \
b1 _
b110 b
0u
1i
0h
b1001111 j
b100000 v
0;
0:
09
08
16
1-
1+
1*
0)
1'
#5000
0C
0Y
#5500
1C
1Y
b1010 ]
b1111 ^
b1010 \
b0 _
b101 b
1u
0t
0i
b1 j
b100100 v
19
0,
0+
0*
0'
#6000
0C
0Y
#6500
1C
1Y
b1001 ]
b1110 ^
b1001 \
b1001 _
b0 `
b100 b
0u
0o
1i
1f
b100 j
b1 p
b1001000 v
09
18
06
15
03
02
01
0.
0-
1+
#7000
0C
0Y
#7500
1C
1Y
b1000 ]
b1101 ^
b1000 \
b1000 _
b11 b
1u
1t
0s
0i
b0 j
b110 v
1:
19
08
05
0+
#8000
0C
0Y
#8500
1C
1Y
b111 ]
b1100 ^
b111 \
b111 _
b10 b
0u
1i
1h
1g
0f
b1111 j
b10010 v
09
17
1-
1,
1+
1*
#9000
0C
0Y
#9500
1C
1Y
b110 ]
b1011 ^
b110 \
b110 _
b1 b
1u
0t
0i
b100000 j
b1001111 v
1;
19
18
07
15
0-
0,
0+
0*
1(
#10000
0C
0Y
#10500
1C
1Y
b101 ]
b1010 ^
b101 \
b101 _
b0 b
0u
1i
0h
b100100 j
b1 v
0:
09
08
05
1+
#11000
0C
0Y
#11500
1C
1Y
b100 ]
b1001 ^
b100 \
b100 _
b1001 b
b0 a
0{
1u
1r
0i
b1001000 j
b100 v
b1 |
0A
0@
0?
0<
0;
19
0+
1*
0(
1'
#12000
0C
0Y
#12500
1C
1Y
b11 ]
b1000 ^
b11 \
b11 _
b1000 b
0u
1i
1h
0g
b110 j
b0 v
09
1,
1+
0*
0'
#13000
0C
0Y
#13500
1C
1Y
b10 ]
b111 ^
b10 \
b10 _
b111 b
1u
1t
1s
0r
0i
b10010 j
b1111 v
1;
1:
19
18
0+
1)
#14000
0C
0Y
#14500
1C
1Y
b1 ]
b110 ^
b1 \
b1 _
b110 b
0u
1i
0h
b1001111 j
b100000 v
0;
0:
09
08
16
1-
1+
1*
0)
1'
#15000
0C
0Y
#15500
1C
1Y
b0 ]
b101 ^
b1 d
b101 \
b101 ]
b1 c
b101 _
b101 b
1u
0t
1g
b100100 j
b100100 v
b10001 [
1"
0!
19
0-
0,
0*
1(
0'
#16000
0C
0Y
#16500
1C
1Y
b100 ]
b100 ^
b100 \
b100 _
b100 b
0u
0i
b1001000 j
b1001000 v
09
18
06
15
0+
1*
0(
1'
#17000
0C
0Y
#17500
1C
1Y
b11 ]
b11 ^
b11 \
b11 _
b11 b
1u
1t
0s
1i
1h
0g
b110 j
b110 v
1:
19
08
05
1,
1+
0*
0'
#18000
0C
0Y
#18500
1C
1Y
b10 ]
b10 ^
b10 \
b10 _
b10 b
0u
0i
b10010 j
b10010 v
09
17
0+
1)
#19000
0C
0Y
#19500
1C
1Y
b1 ]
b1 ^
b1 \
b1 _
b1 b
1u
0t
1i
0h
b1001111 j
b1001111 v
1;
19
18
07
15
1-
1+
1*
0)
1'
#20000
0C
0Y
#20500
1C
1Y
b0 ]
b0 ^
b10 d
b101 \
b10100 ]
b101 ^
b10 c
b0 _
b10 `
b101 b
1s
1n
0i
b1 j
b10010 p
b100100 v
b1010 [
0&
1%
1#
0"
0;
0:
08
16
05
04
13
10
0,
0+
0*
0'
#21000
0C
0Y
#21500
1C
1Y
b10011 ]
b100 ^
b100 \
b1001 _
b1 `
b100 b
0u
1o
0n
1i
1f
b100 j
b1001111 p
b1001000 v
09
18
06
15
14
12
11
00
1.
0-
1+
#22000
0C
0Y
#22500
1C
1Y
b10010 ]
b11 ^
b11 \
b1000 _
b11 b
1u
1t
0s
0i
b0 j
b110 v
1:
19
08
05
0+
#23000
0C
0Y
#23500
1C
1Y
b10001 ]
b10 ^
b10 \
b111 _
b10 b
0u
1i
1h
1g
0f
b1111 j
b10010 v
09
17
1-
1,
1+
1*
#24000
0C
0Y
#24500
1C
1Y
b10000 ]
b1 ^
b1 \
b110 _
b1 b
1u
0t
0i
b100000 j
b1001111 v
1;
19
18
07
15
0-
0,
0+
0*
1(
#25000
0C
0Y
#25500
1C
1Y
b1111 ]
b0 ^
b11 d
b1111 \
b1111 ^
b11 c
b101 _
b101 b
b1 a
1{
1s
1i
0h
b100100 j
b100100 v
b1001111 |
b1100 [
0%
1$
1A
1@
1?
1<
0;
0:
08
16
05
1+
#26000
0C
0Y
#26500
1C
1Y
b1110 ]
b1110 ^
b1110 \
b100 _
b100 b
0u
0i
b1001000 j
b1001000 v
09
18
06
15
0+
1*
0(
1'
#27000
0C
0Y
#27500
1C
1Y
b1101 ]
b1101 ^
b1101 \
b11 _
b11 b
1u
1t
0s
1i
1h
0g
b110 j
b110 v
1:
19
08
05
1,
1+
0*
0'
#28000
0C
0Y
#28500
1C
1Y
b1100 ]
b1100 ^
b1100 \
b10 _
b10 b
0u
0i
b10010 j
b10010 v
09
17
0+
1)
#29000
0C
0Y
#29500
1C
1Y
b1011 ]
b1011 ^
b1011 \
b1 _
b1 b
1u
0t
1i
0h
b1001111 j
b1001111 v
1;
19
18
07
15
1-
1+
1*
0)
1'
#30000
0C
0Y
#30500
1C
1Y
b1010 ]
b1010 ^
b1010 \
b0 _
b0 b
0u
0i
b1 j
b1 v
0:
09
08
05
0,
0+
0*
0'
#31000
0C
0Y
#31500
1C
1Y
b1001 ]
b1001 ^
b1001 \
b1001 _
b0 `
b1001 b
b0 a
0{
1u
1r
0o
1i
1f
b100 j
b1 p
b100 v
b1 |
0A
0@
0?
0<
0;
19
03
02
01
0.
0-
1+
#32000
0C
0Y
#32500
1C
1Y
b1000 ]
b1000 ^
b1000 \
b1000 _
b1000 b
0u
0i
b0 j
b0 v
09
0+
#33000
0C
0Y
#33500
1C
1Y
b111 ]
b111 ^
b111 \
b111 _
b111 b
1u
1t
1s
0r
1i
1h
1g
0f
b1111 j
b1111 v
1;
1:
19
18
1-
1,
1+
1*
#34000
0C
0Y
#34500
1C
1Y
b110 ]
b110 ^
b110 \
b110 _
b110 b
0u
0i
b100000 j
b100000 v
0;
0:
09
08
16
0-
0,
0+
0*
1(
#35000
0C
0Y
#35500
1C
1Y
b101 ]
b101 ^
b101 \
b101 _
b101 b
1u
0t
1i
0h
b100100 j
b100100 v
19
1+
#36000
0C
0Y
#36500
1C
1Y
b100 ]
b100 ^
b100 \
b100 _
b100 b
0u
0i
b1001000 j
b1001000 v
09
18
06
15
0+
1*
0(
1'
#37000
0C
0Y
#37500
1C
1Y
b11 ]
b11 ^
b11 \
b11 _
b11 b
1u
1t
0s
1i
1h
0g
b110 j
b110 v
1:
19
08
05
1,
1+
0*
0'
#38000
0C
0Y
#38500
1C
1Y
b10 ]
b10 ^
b10 \
b10 _
b10 b
0u
0i
b10010 j
b10010 v
09
17
0+
1)
#39000
0C
0Y
#39500
1C
1Y
b1 ]
b1 ^
b1 \
b1 _
b1 b
1u
0t
1i
0h
b1001111 j
b1001111 v
1;
19
18
07
15
1-
1+
1*
0)
1'
#40000
0C
0Y
#40500
1C
1Y
b0 ]
b0 ^
b0 d
b1111 \
b1111 ]
b10100 ^
b0 c
b101 _
b1 `
b0 b
b10 a
1z
0u
1o
1g
b100100 j
b1001111 p
b1 v
b10010 |
b100001 [
1&
0$
0#
1!
0B
1A
1>
0:
09
08
05
13
12
11
1.
0-
0,
0*
1(
0'
#41000
0C
0Y
#41500
1C
1Y
b1110 ]
b10011 ^
b1110 \
b100 _
b1001 b
b1 a
1{
0z
1u
1r
0i
b1001000 j
b100 v
b1001111 |
1B
1@
1?
0>
1<
0;
19
0+
1*
0(
1'
#42000
0C
0Y
#42500
1C
1Y
b1101 ]
b10010 ^
b1101 \
b11 _
b1000 b
0u
1i
1h
0g
b110 j
b0 v
09
1,
1+
0*
0'
#43000
0C
0Y
#43500
1C
1Y
b1100 ]
b10001 ^
b1100 \
b10 _
b111 b
1u
1t
1s
0r
0i
b10010 j
b1111 v
1;
1:
19
18
0+
1)
#44000
0C
0Y
#44500
1C
1Y
b1011 ]
b10000 ^
b1011 \
b1 _
b110 b
0u
1i
0h
b1001111 j
b100000 v
0;
0:
09
08
16
1-
1+
1*
0)
1'
#45000
0C
0Y
#45500
1C
1Y
b1010 ]
b1111 ^
b1010 \
b0 _
b101 b
1u
0t
0i
b1 j
b100100 v
19
0,
0+
0*
0'
#46000
0C
0Y
#46500
1C
1Y
b1001 ]
b1110 ^
b1001 \
b1001 _
b0 `
b100 b
0u
0o
1i
1f
b100 j
b1 p
b1001000 v
09
18
06
15
03
02
01
0.
0-
1+
#47000
0C
0Y
#47500
1C
1Y
b1000 ]
b1101 ^
b1000 \
b1000 _
b11 b
1u
1t
0s
0i
b0 j
b110 v
1:
19
08
05
0+
#48000
0C
0Y
#48500
1C
1Y
b111 ]
b1100 ^
b111 \
b111 _
b10 b
0u
1i
1h
1g
0f
b1111 j
b10010 v
09
17
1-
1,
1+
1*
#49000
0C
0Y
#49500
1C
1Y
b110 ]
b1011 ^
b110 \
b110 _
b1 b
1u
0t
0i
b100000 j
b1001111 v
1;
19
18
07
15
0-
0,
0+
0*
1(
#50000
1D
0C
1Z
0Y
b1111111 j
b1111111 p
b1111111 v
b1111111 |
1>
1=
17
16
13
12
11
10
1/
1.
1-
1,
1+
1*
1)
1'
#50500
1C
1Y
b1111 ]
b10100 ^
b100 d
b100 c
b101 _
b1 `
b0 b
b10 a
0{
1z
0u
1o
1i
0h
b10010 [
0&
1%
1"
0!
#51000
0C
0Y
#51500
1C
1Y
b101 d
b101 c
b0 [
0%
0"
#52000
0C
0Y
#52500
1C
1Y
b100 d
b100 c
b10010 [
1%
1"
#53000
0C
0Y
#53500
1C
1Y
b101 d
b101 c
b0 [
0%
0"
#54000
0C
0Y
#54500
1C
1Y
b100 d
b100 c
b10010 [
1%
1"
#55000
0C
0Y
#55500
1C
1Y
b101 d
b101 c
b0 [
0%
0"
#56000
0C
0Y
#56500
1C
1Y
b100 d
b100 c
b10010 [
1%
1"
#57000
0C
0Y
#57500
1C
1Y
b101 d
b101 c
b0 [
0%
0"
#58000
0C
0Y
#58500
1C
1Y
b100 d
b100 c
b10010 [
1%
1"
#59000
0C
0Y
#59500
1C
1Y
b101 d
b101 c
b0 [
0%
0"
#60000
0C
0Y
#60500
1C
1Y
b100 d
b100 c
b10010 [
1%
1"
#61000
0C
0Y
#61500
1C
1Y
b101 d
b101 c
b0 [
0%
0"
#62000
0C
0Y
#62500
1C
1Y
b100 d
b100 c
b10010 [
1%
1"
#63000
0C
0Y
#63500
1C
1Y
b101 d
b101 c
b0 [
0%
0"
#64000
0C
0Y
#64500
1C
1Y
b100 d
b100 c
b10010 [
1%
1"
#65000
0D
0C
0Z
0Y
b100100 j
b1001111 p
b1 v
b10010 |
0B
0@
0?
0=
0<
0:
09
08
07
06
05
00
0/
0-
0,
0*
0)
0'
#65500
1C
1Y
b1110 ]
b10011 ^
b0 d
b1111 \
b0 c
b100 _
b1001 b
b1 a
1{
0z
1u
1r
0i
b1001000 j
b100 v
b1001111 |
b100001 [
1&
0%
0"
1!
1B
1@
1?
0>
1<
0;
19
0+
1*
0(
1'
#66000
0C
0Y
#66500
1C
1Y
b1101 ]
b10010 ^
b1110 \
b11 _
b1000 b
0u
1i
1h
0g
b110 j
b0 v
09
1,
1+
0*
0'
#67000
0C
0Y
#67500
1C
1Y
b1100 ]
b10001 ^
b1101 \
b10 _
b111 b
1u
1t
1s
0r
0i
b10010 j
b1111 v
1;
1:
19
18
0+
1)
#68000
0C
0Y
#68500
1C
1Y
b1011 ]
b10000 ^
b1100 \
b1 _
b110 b
0u
1i
0h
b1001111 j
b100000 v
0;
0:
09
08
16
1-
1+
1*
0)
1'
#69000
0C
0Y
#69500
1C
1Y
b1010 ]
b1111 ^
b1011 \
b0 _
b101 b
1u
0t
0i
b1 j
b100100 v
19
0,
0+
0*
0'
#70000
0C
0Y
#70500
1C
1Y
b1001 ]
b1110 ^
b1010 \
b1001 _
b0 `
b100 b
0u
0o
1i
1f
b100 j
b1 p
b1001000 v
09
18
06
15
03
02
01
0.
0-
1+
#71000
0C
0Y
#71500
1C
1Y
b1000 ]
b1101 ^
b1001 \
b1000 _
b11 b
1u
1t
0s
0i
b0 j
b110 v
1:
19
08
05
0+
#72000
0C
0Y
#72500
1C
1Y
b111 ]
b1100 ^
b1000 \
b111 _
b10 b
0u
1i
1h
1g
0f
b1111 j
b10010 v
09
17
1-
1,
1+
1*
#73000
0C
0Y
#73500
1C
1Y
b110 ]
b1011 ^
b111 \
b110 _
b1 b
1u
0t
0i
b100000 j
b1001111 v
1;
19
18
07
15
0-
0,
0+
0*
1(
#74000
0C
0Y
#74500
1C
1Y
b101 ]
b1010 ^
b110 \
b101 _
b0 b
0u
1i
0h
b100100 j
b1 v
0:
09
08
05
1+
#75000
0C
0Y
#75500
1C
1Y
b100 ]
b1001 ^
b101 \
b100 _
b1001 b
b0 a
0{
1u
1r
0i
b1001000 j
b100 v
b1 |
0A
0@
0?
0<
0;
19
0+
1*
0(
1'
#76000
0C
0Y
#76500
1C
1Y
b11 ]
b1000 ^
b100 \
b11 _
b1000 b
0u
1i
1h
0g
b110 j
b0 v
09
1,
1+
0*
0'
#77000
0C
0Y
#77500
1C
1Y
b10 ]
b111 ^
b11 \
b10 _
b111 b
1u
1t
1s
0r
0i
b10010 j
b1111 v
1;
1:
19
18
0+
1)
#78000
0C
0Y
#78500
1C
1Y
b1 ]
b110 ^
b10 \
b1 _
b110 b
0u
1i
0h
b1001111 j
b100000 v
0;
0:
09
08
16
1-
1+
1*
0)
1'
#79000
0C
0Y
#79500
1C
1Y
b0 ]
b101 ^
b1 \
b0 _
b101 b
1u
0t
0i
b1 j
b100100 v
19
0,
0+
0*
0'
#80000
0C
0Y
#80500
1C
1Y
b11111 ]
b100 ^
b1 d
b101 \
b101 ]
b1 c
b101 _
b100 b
0u
1i
1g
b100100 j
b1001000 v
b10001 [
1"
0!
09
18
06
15
0-
1+
1(
#81000
0C
0Y
#81500
1C
1Y
b100 ]
b11 ^
b100 \
b100 _
b11 b
1u
1t
0s
0i
b1001000 j
b110 v
1:
19
08
05
0+
1*
0(
1'
#82000
0C
0Y
#82500
1C
1Y
b11 ]
b10 ^
b11 \
b11 _
b10 b
0u
1i
1h
0g
b110 j
b10010 v
09
17
1,
1+
0*
0'
#83000
0C
0Y
#83500
1C
1Y
b10 ]
b1 ^
b10 \
b10 _
b1 b
1u
0t
0i
b10010 j
b1001111 v
1;
19
18
07
15
0+
1)
#84000
0C
0Y
#84500
1C
1Y
b1 ]
b0 ^
b1 \
b1 _
b0 b
0u
1i
0h
b1001111 j
b1 v
0:
09
08
05
1-
1+
1*
0)
1'
#85000
0C
0Y
#85500
1C
1Y
b0 ]
b11111 ^
b10 d
b101 \
b10100 ]
b101 ^
b10 c
b0 _
b10 `
b101 b
1u
1s
1n
0i
b1 j
b10010 p
b100100 v
b1010 [
0&
1%
1#
0"
0;
19
16
04
13
10
0,
0+
0*
0'
#86000
0C
0Y
#86500
1C
1Y
b10011 ]
b100 ^
b100 \
b1001 _
b1 `
b100 b
0u
1o
0n
1i
1f
b100 j
b1001111 p
b1001000 v
09
18
06
15
14
12
11
00
1.
0-
1+
#87000
0C
0Y
#87500
1C
1Y
b10010 ]
b11 ^
b11 \
b1000 _
b11 b
1u
1t
0s
0i
b0 j
b110 v
1:
19
08
05
0+
#88000
0C
0Y
#88500
1C
1Y
b10001 ]
b10 ^
b10 \
b111 _
b10 b
0u
1i
1h
1g
0f
b1111 j
b10010 v
09
17
1-
1,
1+
1*
#89000
0C
0Y
#89500
1C
1Y
b10000 ]
b1 ^
b1 \
b110 _
b1 b
1u
0t
0i
b100000 j
b1001111 v
1;
19
18
07
15
0-
0,
0+
0*
1(
#90000
0C
0Y
#90500
1C
1Y
b1111 ]
b0 ^
b11 d
b1111 \
b1111 ^
b11 c
b101 _
b101 b
b1 a
1{
1s
1i
0h
b100100 j
b100100 v
b1001111 |
b1100 [
0%
1$
1A
1@
1?
1<
0;
0:
08
16
05
1+
#91000
0C
0Y
#91500
1C
1Y
b1110 ]
b1110 ^
b1110 \
b100 _
b100 b
0u
0i
b1001000 j
b1001000 v
09
18
06
15
0+
1*
0(
1'
#92000
0C
0Y
#92500
1C
1Y
b1101 ]
b1101 ^
b1101 \
b11 _
b11 b
1u
1t
0s
1i
1h
0g
b110 j
b110 v
1:
19
08
05
1,
1+
0*
0'
#93000
0C
0Y
#93500
1C
1Y
b1100 ]
b1100 ^
b1100 \
b10 _
b10 b
0u
0i
b10010 j
b10010 v
09
17
0+
1)
#94000
0C
0Y
#94500
1C
1Y
b1011 ]
b1011 ^
b1011 \
b1 _
b1 b
1u
0t
1i
0h
b1001111 j
b1001111 v
1;
19
18
07
15
1-
1+
1*
0)
1'
#95000
0C
0Y
#95500
1C
1Y
b1010 ]
b1010 ^
b1010 \
b0 _
b0 b
0u
0i
b1 j
b1 v
0:
09
08
05
0,
0+
0*
0'
#96000
0C
0Y
#96500
1C
1Y
b1001 ]
b1001 ^
b1001 \
b1001 _
b0 `
b1001 b
b0 a
0{
1u
1r
0o
1i
1f
b100 j
b1 p
b100 v
b1 |
0A
0@
0?
0<
0;
19
03
02
01
0.
0-
1+
#97000
0C
0Y
#97500
1C
1Y
b1000 ]
b1000 ^
b1000 \
b1000 _
b1000 b
0u
0i
b0 j
b0 v
09
0+
#98000
0C
0Y
#98500
1C
1Y
b111 ]
b111 ^
b111 \
b111 _
b111 b
1u
1t
1s
0r
1i
1h
1g
0f
b1111 j
b1111 v
1;
1:
19
18
1-
1,
1+
1*
#99000
0C
0Y
#99500
1C
1Y
b110 ]
b110 ^
b110 \
b110 _
b110 b
0u
0i
b100000 j
b100000 v
0;
0:
09
08
16
0-
0,
0+
0*
1(
#100000
0C
0Y
#100500
1C
1Y
b101 ]
b101 ^
b101 \
b101 _
b101 b
1u
0t
1i
0h
b100100 j
b100100 v
19
1+
#101000
0C
0Y
#101500
1C
1Y
b100 ]
b100 ^
b100 \
b100 _
b100 b
0u
0i
b1001000 j
b1001000 v
09
18
06
15
0+
1*
0(
1'
#102000
0C
0Y
#102500
1C
1Y
b11 ]
b11 ^
b11 \
b11 _
b11 b
1u
1t
0s
1i
1h
0g
b110 j
b110 v
1:
19
08
05
1,
1+
0*
0'
#103000
0C
0Y
#103500
1C
1Y
b10 ]
b10 ^
b10 \
b10 _
b10 b
0u
0i
b10010 j
b10010 v
09
17
0+
1)
#104000
0C
0Y
#104500
1C
1Y
b1 ]
b1 ^
b1 \
b1 _
b1 b
1u
0t
1i
0h
b1001111 j
b1001111 v
1;
19
18
07
15
1-
1+
1*
0)
1'
#105000
0C
0Y
#105500
1C
1Y
b0 ]
b0 ^
b0 d
b1111 \
b1111 ]
b10100 ^
b0 c
b101 _
b1 `
b0 b
b10 a
1z
0u
1o
1g
b100100 j
b1001111 p
b1 v
b10010 |
b100001 [
1&
0$
0#
1!
0B
1A
1>
0:
09
08
05
13
12
11
1.
0-
0,
0*
1(
0'
#106000
0C
0Y
#106500
1C
1Y
b1110 ]
b10011 ^
b1110 \
b100 _
b1001 b
b1 a
1{
0z
1u
1r
0i
b1001000 j
b100 v
b1001111 |
1B
1@
1?
0>
1<
0;
19
0+
1*
0(
1'
#107000
0C
0Y
#107500
1C
1Y
b1101 ]
b10010 ^
b1101 \
b11 _
b1000 b
0u
1i
1h
0g
b110 j
b0 v
09
1,
1+
0*
0'
#108000
0C
0Y
#108500
1C
1Y
b1100 ]
b10001 ^
b1100 \
b10 _
b111 b
1u
1t
1s
0r
0i
b10010 j
b1111 v
1;
1:
19
18
0+
1)
#109000
0C
0Y
#109500
1C
1Y
b1011 ]
b10000 ^
b1011 \
b1 _
b110 b
0u
1i
0h
b1001111 j
b100000 v
0;
0:
09
08
16
1-
1+
1*
0)
1'
#110000
0C
0Y
#110500
1C
1Y
b1010 ]
b1111 ^
b1010 \
b0 _
b101 b
1u
0t
0i
b1 j
b100100 v
19
0,
0+
0*
0'
#111000
0C
0Y
#111500
1C
1Y
b1001 ]
b1110 ^
b1001 \
b1001 _
b0 `
b100 b
0u
0o
1i
1f
b100 j
b1 p
b1001000 v
09
18
06
15
03
02
01
0.
0-
1+
#112000
0C
0Y
#112500
1C
1Y
b1000 ]
b1101 ^
b1000 \
b1000 _
b11 b
1u
1t
0s
0i
b0 j
b110 v
1:
19
08
05
0+
#113000
0C
0Y
#113500
1C
1Y
b111 ]
b1100 ^
b111 \
b111 _
b10 b
0u
1i
1h
1g
0f
b1111 j
b10010 v
09
17
1-
1,
1+
1*
#114000
0C
0Y
#114500
1C
1Y
b110 ]
b1011 ^
b110 \
b110 _
b1 b
1u
0t
0i
b100000 j
b1001111 v
1;
19
18
07
15
0-
0,
0+
0*
1(
